{
  "info": {
    "_postman_id": "c67ee988-cf61-41c6-8c10-eede41d659fc",
    "name": "MetricsService",
    "schema": "https://schema.getpostman.com/json/collection/v2.1.0/collection.json",
    "_exporter_id": "5211788"
  },
  "item": [
    {
      "name": "http://localhost:8080/api/metrics/summary",
      "request": {
        "method": "POST",
        "header": [],
        "body": {
          "mode": "raw",
          "raw": "{\n    \"sensorId\": 1,\n    \"temperature\": 100.0,\n    \"humidity\": 4.0,\n    \"from\": \"2021-01-01\",\n    \"to\": \"2030-12-12\"\n}",
          "options": {
            "raw": {
              "language": "json"
            }
          }
        },
        "url": {
          "raw": "http://localhost:8080/api/metrics/summary",
          "protocol": "http",
          "host": [
            "localhost"
          ],
          "port": "8080",
          "path": [
            "api",
            "metrics",
            "summary"
          ]
        }
      },
      "response": []
    },
    {
      "name": "http://localhost:8080/api/metrics",
      "request": {
        "method": "POST",
        "header": [],
        "body": {
          "mode": "raw",
          "raw": "{\n    \"sensorId\": 1,\n    \"temperature\": 100.0,\n    \"humidity\": 11.0,\n    \"date\": \"2024-11-19\"\n}",
          "options": {
            "raw": {
              "language": "json"
            }
          }
        },
        "url": {
          "raw": "http://localhost:8080/api/metrics",
          "protocol": "http",
          "host": [
            "localhost"
          ],
          "port": "8080",
          "path": [
            "api",
            "metrics"
          ]
        }
      },
      "response": []
    }
  ]
}